{"page":1,"total_results":179,"total_pages":9,"results":[{"vote_count":47,"id":11483,"video":false,"vote_average":6.2,"title":"Pirates","popularity":6.046349,"poster_path":"\/6BFz6oCgaObPwcvJeHdalhDVX36.jpg","original_language":"en","original_title":"Pirates","genre_ids":[12,35],"backdrop_path":"\/jQMlDLS5rwjvUEBnzQbs9n74GB9.jpg","adult":false,"overview":"Captain Red runs a hardy pirate ship with the able assistance of Frog, a dashing young French sailor. One day Capt. Red is captured and taken aboard a Spanish galleon, but thanks to his inventiveness, he raises the crew to mutiny, takes over the ship, and kidnaps the niece of the governor of Maracaibo. The question is, can he keep this pace up?","release_date":"1986-05-08"},{"vote_count":2760,"id":166426,"video":false,"vote_average":6.6,"title":"Pirates of the Caribbean: Dead Men Tell No Tales","popularity":153.758503,"poster_path":"\/xbpSDU3p7YUGlu9Mr6Egg2Vweto.jpg","original_language":"en","original_title":"Pirates of the Caribbean: Dead Men Tell No Tales","genre_ids":[12,28,14,35],"backdrop_path":"\/tZvdyLP2F6x2TTuh292ceH87qZT.jpg","adult":false,"overview":"Thrust into an all-new adventure, a down-on-his-luck Capt. Jack Sparrow feels the winds of ill-fortune blowing even more strongly when deadly ghost sailors led by his old nemesis, the evil Capt. Salazar, escape from the Devil's Triangle. Jack's only hope of survival lies in seeking out the legendary Trident of Poseidon, but to find it, he must forge an uneasy alliance with a brilliant and beautiful astronomer and a headstrong young man in the British navy.","release_date":"2017-05-23"},{"vote_count":5041,"id":1865,"video":false,"vote_average":6.4,"title":"Pirates of the Caribbean: On Stranger Tides","popularity":33.211467,"poster_path":"\/wNUDAq5OUMOtxMlz64YaCp7gZma.jpg","original_language":"en","original_title":"Pirates of the Caribbean: On Stranger Tides","genre_ids":[12,28,14],"backdrop_path":"\/l7zANdjgTvYqwZUx76Vk0EKpCH5.jpg","adult":false,"overview":"Captain Jack Sparrow crosses paths with a woman from his past, and he's not sure if it's love -- or if she's a ruthless con artist who's using him to find the fabled Fountain of Youth. When she forces him aboard the Queen Anne's Revenge, the ship of the formidable pirate Blackbeard, Jack finds himself on an unexpected adventure in which he doesn't know who to fear more: Blackbeard or the woman from his past.","release_date":"2011-05-14"},{"vote_count":177,"id":3293,"video":false,"vote_average":6.7,"title":"Pirates of Silicon Valley","popularity":10.615908,"poster_path":"\/62NXimypwBEiu9IS2Z6R5OI5Ncu.jpg","original_language":"en","original_title":"Pirates of Silicon Valley","genre_ids":[99,18],"backdrop_path":"\/zKJ5KT4yLoIg2P3xrcs6yLAO6Zi.jpg","adult":false,"overview":"This film is the semi-humorous documentary about the men who made the world of technology what it is today, their struggles during college, the founding of their companies, and the ingenious actions they took to build up the global corporate empires of Apple Computer Inc. and Microsoft Corporation.","release_date":"1999-05-10"},{"vote_count":7165,"id":22,"video":false,"vote_average":7.5,"title":"Pirates of the Caribbean: The Curse of the Black Pearl","popularity":52.58814,"poster_path":"\/tkt9xR1kNX5R9rCebASKck44si2.jpg","original_language":"en","original_title":"Pirates of the Caribbean: The Curse of the Black Pearl","genre_ids":[12,14,28],"backdrop_path":"\/8AUQ7YlJJA9C8kWk8P4YNHIcFDE.jpg","adult":false,"overview":"Jack Sparrow, a freewheeling 17th-century pirate who roams the Caribbean Sea, butts heads with a rival pirate bent on pillaging the village of Port Royal. When the governor's daughter is kidnapped, Sparrow decides to help the girl's love save her. But their seafaring mission is hardly simple.","release_date":"2003-07-09"},{"vote_count":4604,"id":285,"video":false,"vote_average":6.9,"title":"Pirates of the Caribbean: At World's End","popularity":39.457826,"poster_path":"\/bXb00CkHqx7TPchTGG131sWV59y.jpg","original_language":"en","original_title":"Pirates of the Caribbean: At World's End","genre_ids":[12,14,28],"backdrop_path":"\/8ZgpAftUiYTU76IhUADITa3Ur9n.jpg","adult":false,"overview":"Captain Barbossa, long believed to be dead, has come back to life and is headed to the edge of the Earth with Will Turner and Elizabeth Swann. But nothing is quite as it seems.","release_date":"2007-05-19"},{"vote_count":5360,"id":58,"video":false,"vote_average":7,"title":"Pirates of the Caribbean: Dead Man's Chest","popularity":31.191223,"poster_path":"\/waFr5RVKaQ9dzOt3nQuIVB1FiPu.jpg","original_language":"en","original_title":"Pirates of the Caribbean: Dead Man's Chest","genre_ids":[12,14,28],"backdrop_path":"\/hdHgIcljPHli4xaJGt0INz8Gn3J.jpg","adult":false,"overview":"Captain Jack Sparrow works his way out of a blood debt with the ghostly Davey Jones, he also attempts to avoid eternal damnation.","release_date":"2006-06-20"},{"vote_count":377,"id":72197,"video":false,"vote_average":6.4,"title":"The Pirates! In an Adventure with Scientists!","popularity":11.763445,"poster_path":"\/w5NquAU73QRayUB4ZfF6F6eyY2e.jpg","original_language":"en","original_title":"The Pirates! In an Adventure with Scientists!","genre_ids":[16,12,10751,35],"backdrop_path":"\/yJT2JCdjtuH5K202bC4YL0wOYD2.jpg","adult":false,"overview":"The luxuriantly bearded Pirate Captain is a boundlessly enthusiastic, if somewhat less-than-successful, terror of the High Seas. With a rag-tag crew at his side, and seemingly blind to the impossible odds stacked against him, the Captain has one dream: to beat his bitter rivals Black Bellamy and Cutlass Liz to the much coveted Pirate of the Year Award. It’s a quest that takes our heroes from the shores of exotic Blood Island to the foggy streets of Victorian London. Along the way they battle a diabolical queen and team up with a haplessly smitten young scientist, but never lose sight of what a pirate loves best: adventure!","release_date":"2012-03-12"},{"vote_count":49,"id":10179,"video":false,"vote_average":5.7,"title":"The Ice Pirates","popularity":4.83207,"poster_path":"\/wDnPJkkBDLqnwZKkPZoWptgOz9U.jpg","original_language":"en","original_title":"The Ice Pirates","genre_ids":[28,878,35],"backdrop_path":"\/dvvitNm9sld8n0hrsAuj5gyycEF.jpg","adult":false,"overview":"The time is the distant future, where by far the most precious commodity in the galaxy is water. The last surviving water planet was somehow removed to the unreachable centre of the galaxy at the end of the galactic trade wars. The galaxy is ruled by an evil emperor (John Carradine) presiding over a trade oligarchy that controls all mining and sale of ice from asteroids and comets.","release_date":"1984-03-16"},{"vote_count":45,"id":285213,"video":false,"vote_average":6.4,"title":"The Pirates","popularity":4.258038,"poster_path":"\/ci3CCTVLYCKWTluMShJWHl6E7tw.jpg","original_language":"ko","original_title":"해적: 바다로 간 산적","genre_ids":[28,36,12],"backdrop_path":"\/h2MLv3EeSXar0J7upxHAzZMvO9P.jpg","adult":false,"overview":"On the eve of the founding of the Joseon Dynasty, a whale swallows the Emperor's Seal of State being brought to Joseon by envoys from China. With a big reward on whoever brings back the royal seal, mountain bandits led by Jang Sa-jung go out to sea to hunt down the whale. But he soon clashes with Yeo-wol, a female captain of pirates, and unexpected adventure unfolds.","release_date":"2014-08-06"},{"vote_count":0,"id":132493,"video":false,"vote_average":0,"title":"Pirates","popularity":1.001246,"poster_path":"\/uVJo8kQeRYOMEwlY2vbxuJht97m.jpg","original_language":"en","original_title":"Pirates","genre_ids":[99],"backdrop_path":null,"adult":false,"overview":"Discovery examines the history of \"Golden age of Piracy.\" The program takes a detailed look at the harsh lives of pirates, their tactics, motivations and why they would choose such a life. The geopolitical forces that lead to the proliferation of pirates and their final demise are explained.","release_date":"1998-04-06"},{"vote_count":22,"id":13355,"video":false,"vote_average":6.7,"title":"Scooby-Doo! Pirates Ahoy!","popularity":5.799596,"poster_path":"\/tTnXOstlUMpKHSoirKI6jRMTLcP.jpg","original_language":"en","original_title":"Scooby-Doo! Pirates Ahoy!","genre_ids":[16,35,10751,9648],"backdrop_path":"\/lDe8q8A3F6c2p1WbyfOUzTtoVSw.jpg","adult":false,"overview":"Ghost pirates attack the cruise ship that Scooby and the gang are vacationing on.","release_date":"2006-01-01"},{"vote_count":2,"id":246050,"video":false,"vote_average":6.3,"title":"Petticoat Pirates","popularity":1.919993,"poster_path":"\/duZ64zfXaZIuTHrb52wTvZ6zGUo.jpg","original_language":"en","original_title":"Petticoat Pirates","genre_ids":[35],"backdrop_path":"\/qAt5a7bUcFQmAbWOt3TKWH9JRud.jpg","adult":false,"overview":"Undistinguished British farce (in Technicolor and CinemaScope). Stoker Charlie (the diminutive Drake) helps 150 Wrens under Superintendent Maxine Audley, who've hijacked a frigate, HMS 'Huntress', to prove they're the equal of their male counterparts. Hardly a feminist masterpiece, but fans will relish the nightmare court-martial in which Drake plays all the parts","release_date":"1961-11-01"},{"vote_count":3,"id":218970,"video":false,"vote_average":3.3,"title":"Pirates of the Plain","popularity":2.24354,"poster_path":"\/50H91tWtWbUVL5u0XMmbPN0kVzq.jpg","original_language":"en","original_title":"Pirates of the Plain","genre_ids":[10751,12,14],"backdrop_path":"\/5gw4ED4oXAJXibYImwZv0Gw02g6.jpg","adult":false,"overview":"Pirates of the Plain details the adventure of Jezebel Jack (Tim Curry), a pirate with a heart of gold that is sent to the future where he meets Bobby (Seth Adkins), a young boy with an overactive imagination.","release_date":"1999-11-18"},{"vote_count":1,"id":86298,"video":false,"vote_average":6,"title":"Sky Pirates","popularity":1.445788,"poster_path":"\/jaTIX4whGA2hVNuwc8f72WSWXbb.jpg","original_language":"en","original_title":"Sky Pirates","genre_ids":[12,878],"backdrop_path":"\/h7ZqNgZDpRPz7CLCM6UgqWXESP2.jpg","adult":false,"overview":"Air force Lieutenant Harris starts for a flight to Boa Boa, on board Reverend Mitchell with a box containing a part of a top-secret extraterrestrial key. They get lost in a supernatural storm and find themselves after an emergency landing in kind of a Bermuda triangle, 5,000 miles off their course. Home again, no one believes Harris' story, and his crew suspiciously denies it too. Harris is thrown in jail, but manages to escape. Together with Mitchell's daughter he seeks the lost part of the key and its secret.","release_date":"1986-01-16"},{"vote_count":4,"id":5644,"video":false,"vote_average":4.8,"title":"Treasure Island","popularity":3.192722,"poster_path":"\/7lCjQ2hirmxKxMqwURehBkti7hu.jpg","original_language":"de","original_title":"Die Schatzinsel","genre_ids":[12,10751],"backdrop_path":"\/vAA6QwAzbM0WVmIId7pxsKca9wZ.jpg","adult":false,"overview":"A terrible storm is raging the night it all begins - with a knock on the door. 17-year-old Jim Hawkins helps his widowed mother run their little tavern on the coast of 19th century England. When the door is opened they are startled by a sight that makes their blood run cold...","release_date":"2007-11-26"},{"vote_count":2,"id":317473,"video":false,"vote_average":7.5,"title":"Pirates","popularity":1.166443,"poster_path":"\/6JxY5l0iBccMnWD8r8GSTaiHoQK.jpg","original_language":"hu","original_title":"Kalózok","genre_ids":[35,18],"backdrop_path":"\/jiLWqzbxR0rZymDJfDbkkwT17gp.jpg","adult":false,"overview":"A pirate radio, the girl next door, and a test of friendship.","release_date":"1999-01-07"},{"vote_count":0,"id":193037,"video":false,"vote_average":0,"title":"The Pirates of Capri","popularity":1.879046,"poster_path":"\/qquz9aIAhBI8gj5RulceF6H7bKY.jpg","original_language":"en","original_title":"The Pirates of Capri","genre_ids":[],"backdrop_path":null,"adult":false,"overview":"A group of men calling themselves 'The Pirates of Capri\", headed by Captain Sirroco, who is really Count Amalfi, are trying to restore freedom to the people of Naples in 1779. The Queen is advised of the pirate's assault of a member of her court and she seeks to escape to Palermo. But, she is advised it would be good politics for her to attend a ball Amalfi is giving for his fiancée, Mercedes, who is unaware of the dual role Amalfi is playing.","release_date":"1949-12-25"},{"vote_count":0,"id":260149,"video":false,"vote_average":0,"title":"Pirates Island","popularity":1.000006,"poster_path":"\/lZpr66mH6wBJY7xkBLovObIkGxU.jpg","original_language":"en","original_title":"Pirates Island","genre_ids":[],"backdrop_path":null,"adult":false,"overview":"Pirate TV Movie from 1991","release_date":"1991-01-01"},{"vote_count":0,"id":338050,"video":false,"vote_average":0,"title":"Snow Pirates","popularity":1.019959,"poster_path":"\/f6Yw998UKyLDLoQWUHLB0E8k7SO.jpg","original_language":"tr","original_title":"Kar korsanlari","genre_ids":[36,18],"backdrop_path":null,"adult":false,"overview":"In the shadow of the military coup in 1980, these children aged 12-13, playing their childish games soon arrive at an understanding of life's responsibilities and are hastily introduced into the world of the grownups.","release_date":"2015-02-07"}]}
